STA 207
…
Data Cleaning and Preparing

STAR_Students <- read_sav("STAR_Students.sav")     

## Failed to find G1READ_A
## Failed to find G1MATH_A
## Failed to find G2READ_A
## Failed to find G2MATH_A
## Failed to find G3READ_A
## Failed to find G3MATH_A

STAR_Students

## # A tibble: 11,601 × 379
##    stdntid gender  race    birthmonth birthday birthyear FLAGSGK FLAGSG1 FLAGSG2
##      <dbl> <dbl+l> <dbl+l> <dbl+lbl>     <dbl>     <dbl> <dbl+l> <dbl+l> <dbl+l>
##  1   10000 1 [MAL… 1 [WHI… 1 [JANUAR…       22      1979 0 [NO]  1 [YES] 1 [YES]
##  2   10001 1 [MAL… 1 [WHI… 2 [FEBRUA…       20      1980 1 [YES] 0 [NO]  0 [NO] 
##  3   10002 2 [FEM… 2 [BLA… 7 [JULY]         21      1979 0 [NO]  0 [NO]  0 [NO] 
##  4   10003 1 [MAL… 1 [WHI… 5 [MAY]          28      1980 0 [NO]  1 [YES] 1 [YES]
##  5   10004 2 [FEM… 2 [BLA… 1 [JANUAR…        2      1980 0 [NO]  0 [NO]  1 [YES]
##  6   10005 1 [MAL… 2 [BLA… 1 [JANUAR…        1      1980 0 [NO]  0 [NO]  1 [YES]
##  7   10006 2 [FEM… 2 [BLA… 2 [FEBRUA…        5      1979 0 [NO]  0 [NO]  1 [YES]
##  8   10007 1 [MAL… 2 [BLA… 3 [MARCH]        15      1980 0 [NO]  0 [NO]  0 [NO] 
##  9   10008 2 [FEM… 2 [BLA… 4 [ARPIL]        23      1979 0 [NO]  1 [YES] 1 [YES]
## 10   10009 2 [FEM… 2 [BLA… 4 [ARPIL]        24      1980 0 [NO]  0 [NO]  0 [NO] 
## # ℹ 11,591 more rows
## # ℹ 370 more variables: FLAGSG3 <dbl+lbl>, flaggk <dbl+lbl>, flagg1 <dbl+lbl>,
## #   flagg2 <dbl+lbl>, flagg3 <dbl+lbl>, flagg4 <dbl+lbl>, flagg5 <dbl+lbl>,
## #   flagg6 <dbl+lbl>, flagg7 <dbl+lbl>, flagg8 <dbl+lbl>, flagprt4 <dbl+lbl>,
## #   flagidn8 <dbl+lbl>, flagprt8 <dbl+lbl>, flagsatact <dbl+lbl>,
## #   flaghscourse <dbl+lbl>, flaghsgraduate <dbl+lbl>, gkclasstype <dbl+lbl>,
## #   g1classtype <dbl+lbl>, g2classtype <dbl+lbl>, g3classtype <dbl+lbl>, …
…
